{
  "Samsung Audio": {
    "icon": "speaker",
    "properties": {
      "Power": { "control": "Button", "icon": "power_settings_new" },
      "Volume": { "control": "Slider", "icon": "volume_up" },
      "Playlist": { "control": "Select", "icon": "library_music" }
    }
  },
  "Sony Audio": {
    "icon": "speaker",
    "properties": {
      "Power": { "control": "Button", "icon": "power_settings_new" },
      "Volume": { "control": "Slider", "icon": "volume_up" },
      "Playlist": { "control": "Select", "icon": "library_music" }
    }
  },
  "Apple TV": {
    "icon": "speaker",
    "properties": {
      "Power": { "control": "Button", "icon": "power_settings_new" },
      "Brightness": { "control": "Slider", "icon": "brightness_high" },
      "Volume": { "control": "Slider", "icon": "volume_up" }
    }
  },
  "Citrus Lights": {
    "icon": "lightbulb_outline",
    "properties": {
      "On/Off": { "control": "Button", "icon": "power_settings_new" }
    }
  }
}
