{
  "0": {
    "name": "Bedroom Apple TV",
    "type": "Apple TV",
    "uri": "http://127.0.0.1",
    "properties": {
      "Power": { "name": "Power", "value": true },
      "Brightness": { "name": "Brightness", "value": 100 },
      "Volume": { "name": "Volume", "value": 100 }
    }
  },
  "1": {
    "name": "Livingroom Player",
    "type": "Samsung Audio",
    "uri": "http://127.0.0.1",
    "properties": {
      "Power": { "name": "Power", "value": true },
      "Volume": { "name": "Volume", "value": 100 },
      "Playlist": { "name": "Playlist", "value": "My playlist 1",
        "source": [ "My playlist 1", "My favorites" ] }
    }
  },
  "2": {
    "name": "Livingroom Lights",
    "type": "Citrus Lights",
    "uri": "http://automationprototype.herokuapp.com/citruslight/power",
    "properties": {
      "On/Off": { "name": "On/Off", "value": true }
    }
  }
}
